{
  "type": "http_endpoint_trigger",
  "id": "325e7483-fbd8-45be-b64c-b4698f632e52",
  "x": "988",
  "y": "269",
  "field": {
    "TRIGGERTYPE": "user_mapping",
    "EXPECTRESPONSE": "true"
  },
  "input": {
    "SERVICE": {
      "type": "http_endpoint_connection",
      "id": "b06978c7-987d-46f7-8840-675f9f7f7820",
      "inputTag": "value",
      "blockTag": "shadow",
      "field": {
        "CONNECTION": "05fabcbf-a39b-4de6-ad56-2a433701a183"
      },
      "input": {}
    }
  },
  "next": {
    "type": "code_typescript",
    "id": "08332a25-73b5-4080-8e2f-a999e693ed9e",
    "blockTag": "block",
    "field": {
      "CODE": "8d72fcb34a9fccee9256952a57e38fa0ee6f1d03"
    },
    "input": {}
  }
}