{
  "type": "core_manual_trigger",
  "id": "33f5dd9f-f6ad-44a1-be3c-138123c01efe",
  "x": "511",
  "y": "150",
  "field": {},
  "input": {},
  "next": {
    "type": "code_typescript",
    "id": "de85c747-e4ec-4940-b62f-466c42c73452",
    "blockTag": "block",
    "field": {
      "CODE": "41e3d25f2f0dcbb3369de9a11a7f889576efcc69"
    },
    "input": {}
  }
}