{
  "type": "code_module",
  "id": "a605955b-7fe4-47eb-9815-59131848ba4c",
  "x": "689",
  "y": "510",
  "field": {
    "NAME": "tempo"
  },
  "input": {},
  "next": {
    "type": "code_typescript",
    "id": "61cbddb6-abb5-499c-b439-b3a383b771ad",
    "blockTag": "block",
    "field": {
      "CODE": "26bcc5d75eb59bbb4a0888ffd3db9584f8ca02bc"
    },
    "input": {}
  }
}