{
  "type": "code_module",
  "id": "eda0d138-1530-4fbb-8c02-89fda3edc265",
  "x": "687",
  "y": "150",
  "field": {
    "NAME": "storage"
  },
  "input": {},
  "next": {
    "type": "code_typescript",
    "id": "f6cd6a63-7d3c-4ae3-9052-3ebb463e047e",
    "blockTag": "block",
    "field": {
      "CODE": "016c8d59a81dc03cca3a086c41e953d43d6669e9"
    },
    "input": {}
  }
}