{
  "type": "code_module",
  "id": "ff00856a-fb66-4559-b919-8fd8b2fa0585",
  "x": "989",
  "y": "593",
  "field": {
    "NAME": "connections/jiraCloud/target"
  },
  "input": {},
  "next": {
    "type": "code_connection",
    "id": "e97dc0cf-01e7-4913-a844-036eb2efe0c7",
    "blockTag": "block",
    "field": {},
    "input": {
      "SERVICE": {
        "type": "core_connection_static",
        "id": "a321d402-6133-46db-abfe-b2b9510600c4",
        "inputTag": "value",
        "blockTag": "shadow",
        "field": {
          "CONNECTION": "50702610-c2f7-49a4-ae32-dbc8fb87c3a1"
        },
        "input": {}
      }
    }
  }
}